{
	"engines": {
		"Ask": false,
		"Bing": false,
		"DogPile": false,
		"DuckDuckGo": true,
		"GitHub": true,
		"Google": false,
		"GoogleScholar": true,
		"Quora": false,
		"Qwant": false,
		"Searx": false,
		"Startpage": true,
		"UrbanDictionary": true,
		"WolframAlpha": false,
		"Yahoo": false,
		"Yandex": true,
		"YouTube": true,
		"_all": true
	}
}